^\\STUHOME\HOMEDRIVE0$\1701210\DESKTOP\E6_RENDERTARGET\E6_RENDERTARGET\X64\DEBUG\APP1.OBJ|\\STUHOME\HOMEDRIVE0$\1701210\DESKTOP\E6_RENDERTARGET\E6_RENDERTARGET\X64\DEBUG\LIGHTSHADER.OBJ|\\STUHOME\HOMEDRIVE0$\1701210\DESKTOP\E6_RENDERTARGET\E6_RENDERTARGET\X64\DEBUG\MAIN.OBJ|\\STUHOME\HOMEDRIVE0$\1701210\DESKTOP\E6_RENDERTARGET\E6_RENDERTARGET\X64\DEBUG\TEXTURESHADER.OBJ|\\STUHOME\HOMEDRIVE0$\1701210\DESKTOP\E6_RENDERTARGET\LIB\DEBUG\DXFRAMEWORK.LIB
C:\PROGRAM FILES (X86)\WINDOWS KITS\10\LIB\10.0.17763.0\UM\X64\D3D11.LIB
\\STUHOME\HOMEDRIVE0$\1701210\DESKTOP\E6_RENDERTARGET\LIB\DEBUG\DXFRAMEWORK.LIB
C:\PROGRAM FILES (X86)\WINDOWS KITS\10\LIB\10.0.17763.0\UM\X64\DXGI.LIB
C:\PROGRAM FILES (X86)\WINDOWS KITS\10\LIB\10.0.17763.0\UM\X64\D3DCOMPILER.LIB
\\STUHOME\HOMEDRIVE0$\1701210\DESKTOP\E6_RENDERTARGET\LIB\DEBUG\DIRECTXTK.LIB
\\STUHOME\HOMEDRIVE0$\1701210\DESKTOP\E6_RENDERTARGET\LIB\DEBUG\ASSIMP-VC140-MT.LIB
C:\PROGRAM FILES (X86)\WINDOWS KITS\10\LIB\10.0.17763.0\UM\X64\KERNEL32.LIB
C:\PROGRAM FILES (X86)\WINDOWS KITS\10\LIB\10.0.17763.0\UM\X64\USER32.LIB
C:\PROGRAM FILES (X86)\WINDOWS KITS\10\LIB\10.0.17763.0\UM\X64\GDI32.LIB
C:\PROGRAM FILES (X86)\WINDOWS KITS\10\LIB\10.0.17763.0\UM\X64\WINSPOOL.LIB
C:\PROGRAM FILES (X86)\WINDOWS KITS\10\LIB\10.0.17763.0\UM\X64\COMDLG32.LIB
C:\PROGRAM FILES (X86)\WINDOWS KITS\10\LIB\10.0.17763.0\UM\X64\ADVAPI32.LIB
C:\PROGRAM FILES (X86)\WINDOWS KITS\10\LIB\10.0.17763.0\UM\X64\SHELL32.LIB
C:\PROGRAM FILES (X86)\WINDOWS KITS\10\LIB\10.0.17763.0\UM\X64\OLE32.LIB
C:\PROGRAM FILES (X86)\WINDOWS KITS\10\LIB\10.0.17763.0\UM\X64\OLEAUT32.LIB
C:\PROGRAM FILES (X86)\WINDOWS KITS\10\LIB\10.0.17763.0\UM\X64\UUID.LIB
C:\PROGRAM FILES (X86)\WINDOWS KITS\10\LIB\10.0.17763.0\UM\X64\ODBC32.LIB
C:\PROGRAM FILES (X86)\WINDOWS KITS\10\LIB\10.0.17763.0\UM\X64\ODBCCP32.LIB
\\STUHOME\HOMEDRIVE0$\1701210\DESKTOP\E6_RENDERTARGET\E6_RENDERTARGET\X64\DEBUG\APP1.OBJ
\\STUHOME\HOMEDRIVE0$\1701210\DESKTOP\E6_RENDERTARGET\E6_RENDERTARGET\X64\DEBUG\LIGHTSHADER.OBJ
\\STUHOME\HOMEDRIVE0$\1701210\DESKTOP\E6_RENDERTARGET\E6_RENDERTARGET\X64\DEBUG\MAIN.OBJ
\\STUHOME\HOMEDRIVE0$\1701210\DESKTOP\E6_RENDERTARGET\E6_RENDERTARGET\X64\DEBUG\TEXTURESHADER.OBJ
C:\WINDOWS\SYSTEM32\TZRES.DLL
C:\WINDOWS\GLOBALIZATION\SORTING\SORTDEFAULT.NLS
C:\PROGRAM FILES (X86)\MICROSOFT VISUAL STUDIO\2019\ENTERPRISE\VC\TOOLS\MSVC\14.21.27702\LIB\X64\MSVCPRTD.LIB
C:\PROGRAM FILES (X86)\MICROSOFT VISUAL STUDIO\2019\ENTERPRISE\VC\TOOLS\MSVC\14.21.27702\LIB\X64\MSVCRTD.LIB
C:\PROGRAM FILES (X86)\MICROSOFT VISUAL STUDIO\2019\ENTERPRISE\VC\TOOLS\MSVC\14.21.27702\LIB\X64\OLDNAMES.LIB
C:\PROGRAM FILES (X86)\WINDOWS KITS\10\LIB\10.0.17763.0\UM\X64\IMM32.LIB
C:\PROGRAM FILES (X86)\WINDOWS KITS\10\LIB\10.0.17763.0\UM\X64\DXGUID.LIB
C:\PROGRAM FILES (X86)\MICROSOFT VISUAL STUDIO\2019\ENTERPRISE\VC\TOOLS\MSVC\14.21.27702\LIB\X64\VCRUNTIMED.LIB
C:\PROGRAM FILES (X86)\WINDOWS KITS\10\LIB\10.0.17763.0\UCRT\X64\UCRTD.LIB
^C:\USERS\UNI\DESKTOP\E6_RENDERTARGET\E6_RENDERTARGET\X64\DEBUG\APP1.OBJ|C:\USERS\UNI\DESKTOP\E6_RENDERTARGET\E6_RENDERTARGET\X64\DEBUG\LIGHTSHADER.OBJ|C:\USERS\UNI\DESKTOP\E6_RENDERTARGET\E6_RENDERTARGET\X64\DEBUG\MAIN.OBJ|C:\USERS\UNI\DESKTOP\E6_RENDERTARGET\E6_RENDERTARGET\X64\DEBUG\TEXTURESHADER.OBJ|C:\USERS\UNI\DESKTOP\E6_RENDERTARGET\LIB\DEBUG\DXFRAMEWORK.LIB
C:\PROGRAM FILES (X86)\WINDOWS KITS\10\LIB\10.0.18362.0\UM\X64\D3D11.LIB
C:\USERS\UNI\DESKTOP\E6_RENDERTARGET\LIB\DEBUG\DXFRAMEWORK.LIB
C:\PROGRAM FILES (X86)\WINDOWS KITS\10\LIB\10.0.18362.0\UM\X64\DXGI.LIB
C:\PROGRAM FILES (X86)\WINDOWS KITS\10\LIB\10.0.18362.0\UM\X64\D3DCOMPILER.LIB
C:\USERS\UNI\DESKTOP\E6_RENDERTARGET\LIB\DEBUG\DIRECTXTK.LIB
C:\USERS\UNI\DESKTOP\E6_RENDERTARGET\LIB\DEBUG\ASSIMP-VC140-MT.LIB
C:\PROGRAM FILES (X86)\WINDOWS KITS\10\LIB\10.0.18362.0\UM\X64\KERNEL32.LIB
C:\PROGRAM FILES (X86)\WINDOWS KITS\10\LIB\10.0.18362.0\UM\X64\USER32.LIB
C:\PROGRAM FILES (X86)\WINDOWS KITS\10\LIB\10.0.18362.0\UM\X64\GDI32.LIB
C:\PROGRAM FILES (X86)\WINDOWS KITS\10\LIB\10.0.18362.0\UM\X64\WINSPOOL.LIB
C:\PROGRAM FILES (X86)\WINDOWS KITS\10\LIB\10.0.18362.0\UM\X64\COMDLG32.LIB
C:\PROGRAM FILES (X86)\WINDOWS KITS\10\LIB\10.0.18362.0\UM\X64\ADVAPI32.LIB
C:\PROGRAM FILES (X86)\WINDOWS KITS\10\LIB\10.0.18362.0\UM\X64\SHELL32.LIB
C:\PROGRAM FILES (X86)\WINDOWS KITS\10\LIB\10.0.18362.0\UM\X64\OLE32.LIB
C:\PROGRAM FILES (X86)\WINDOWS KITS\10\LIB\10.0.18362.0\UM\X64\OLEAUT32.LIB
C:\PROGRAM FILES (X86)\WINDOWS KITS\10\LIB\10.0.18362.0\UM\X64\UUID.LIB
C:\PROGRAM FILES (X86)\WINDOWS KITS\10\LIB\10.0.18362.0\UM\X64\ODBC32.LIB
C:\PROGRAM FILES (X86)\WINDOWS KITS\10\LIB\10.0.18362.0\UM\X64\ODBCCP32.LIB
C:\USERS\UNI\DESKTOP\E6_RENDERTARGET\E6_RENDERTARGET\X64\DEBUG\APP1.OBJ
C:\USERS\UNI\DESKTOP\E6_RENDERTARGET\E6_RENDERTARGET\X64\DEBUG\LIGHTSHADER.OBJ
C:\USERS\UNI\DESKTOP\E6_RENDERTARGET\E6_RENDERTARGET\X64\DEBUG\MAIN.OBJ
C:\USERS\UNI\DESKTOP\E6_RENDERTARGET\E6_RENDERTARGET\X64\DEBUG\TEXTURESHADER.OBJ
C:\WINDOWS\GLOBALIZATION\SORTING\SORTDEFAULT.NLS
C:\PROGRAM FILES (X86)\MICROSOFT VISUAL STUDIO\2019\COMMUNITY\VC\TOOLS\MSVC\14.27.29110\LIB\X64\MSVCPRTD.LIB
C:\PROGRAM FILES (X86)\MICROSOFT VISUAL STUDIO\2019\COMMUNITY\VC\TOOLS\MSVC\14.27.29110\LIB\X64\MSVCRTD.LIB
C:\PROGRAM FILES (X86)\MICROSOFT VISUAL STUDIO\2019\COMMUNITY\VC\TOOLS\MSVC\14.27.29110\LIB\X64\OLDNAMES.LIB
C:\PROGRAM FILES (X86)\WINDOWS KITS\10\LIB\10.0.18362.0\UM\X64\IMM32.LIB
C:\PROGRAM FILES (X86)\WINDOWS KITS\10\LIB\10.0.18362.0\UM\X64\DXGUID.LIB
C:\PROGRAM FILES (X86)\MICROSOFT VISUAL STUDIO\2019\COMMUNITY\VC\TOOLS\MSVC\14.27.29110\LIB\X64\VCRUNTIMED.LIB
C:\PROGRAM FILES (X86)\WINDOWS KITS\10\LIB\10.0.18362.0\UCRT\X64\UCRTD.LIB
C:\PROGRAM FILES (X86)\MICROSOFT VISUAL STUDIO\2019\COMMUNITY\VC\TOOLS\MSVC\14.27.29110\BIN\HOSTX86\X64\CVTRES.EXE
C:\PROGRAM FILES (X86)\MICROSOFT VISUAL STUDIO\2019\COMMUNITY\VC\TOOLS\MSVC\14.27.29110\BIN\HOSTX86\X64\MSPDBSRV.EXE
C:\WINDOWS\SYSTEM32\TZRES.DLL
